<svg version="1.1" id="Layer_1" xmlns="http://www.w3.org/2000/svg" xmlns:xlink="http://www.w3.org/1999/xlink" x="0px" y="0px"
	 width="100%" viewBox="0 0 225 225" enable-background="new 0 0 225 225" xml:space="preserve">
<path fill="#EE2F3E" opacity="1.000000" stroke="none" 
	d="
M91.000000,1.000000 
	C105.354225,1.000000 119.708458,1.000000 134.298676,1.368097 
	C141.447861,3.851660 148.520035,5.556539 155.244247,8.160078 
	C174.909302,15.774161 191.235947,28.021320 203.962463,44.880550 
	C213.894257,58.037518 220.562897,72.730286 224.061905,88.864372 
	C224.238388,89.678085 225.332932,90.292686 226.000000,91.000000 
	C226.000000,105.687561 226.000000,120.375122 225.635712,135.294052 
	C224.874329,136.027786 224.219940,136.482819 224.117569,137.039398 
	C221.180283,153.008392 214.726532,167.436279 205.164383,180.508514 
	C188.240723,203.644531 165.798065,218.222580 137.699081,224.082565 
	C137.028580,224.222397 136.561798,225.338989 136.000000,226.000000 
	C121.645775,226.000000 107.291542,226.000000 92.705566,225.633377 
	C84.970215,222.860794 77.369461,220.718430 69.982491,217.996002 
	C52.660267,211.612000 38.260849,200.706802 26.560118,186.768402 
	C14.627264,172.553467 6.454247,156.116684 2.916026,137.639542 
	C2.792485,136.994385 1.661457,136.542145 1.000001,136.000000 
	C1.000000,121.645775 1.000000,107.291542 1.366894,92.704865 
	C4.156692,84.805756 6.177556,76.982857 9.083932,69.504097 
	C15.684190,52.520153 26.290239,38.092495 40.205334,26.549162 
	C54.497375,14.693131 70.885788,6.465380 89.362892,2.915968 
	C90.007492,2.792141 90.458672,1.661422 91.000000,1.000000 
M55.748096,52.254162 
	C55.591232,52.404957 55.428665,52.549324 54.936165,53.497288 
	C54.735901,54.463291 54.361324,55.429153 54.360512,56.395325 
	C54.328644,94.277969 54.292858,132.160797 54.447742,170.042816 
	C54.454994,171.817398 56.201260,173.584885 57.416870,175.779251 
	C57.980236,175.732269 58.543602,175.685303 59.997673,175.371033 
	C75.486595,175.348434 90.976944,175.438354 106.463638,175.241104 
	C111.759468,175.173676 117.131027,174.836151 122.323654,173.856781 
	C167.398849,165.355118 187.933411,112.493149 160.175018,76.381042 
	C148.064697,60.626175 131.435776,53.284134 111.551231,51.034561 
	C110.324745,50.690739 109.099503,50.052845 107.871590,50.047688 
	C92.177406,49.981747 76.482300,49.949261 60.789169,50.094875 
	C59.188278,50.109734 57.598587,51.331821 55.999950,52.010029 
	C55.999950,52.010029 55.983070,52.005344 55.748096,52.254162 
z"/>
<path fill="#FEFDFD" opacity="1.000000" stroke="none" 
	d="
M57.137634,175.355667 
	C56.201260,173.584885 54.454994,171.817398 54.447742,170.042816 
	C54.292858,132.160797 54.328644,94.277969 54.360512,56.395325 
	C54.361324,55.429153 54.735901,54.463291 55.250099,53.035202 
	C55.750175,52.418312 55.889854,52.229053 55.983070,52.005344 
	C55.983070,52.005344 55.999950,52.010029 56.468239,51.948143 
	C75.284393,51.804554 93.632271,51.722847 111.980141,51.641144 
	C131.435776,53.284134 148.064697,60.626175 160.175018,76.381042 
	C187.933411,112.493149 167.398849,165.355118 122.323654,173.856781 
	C117.131027,174.836151 111.759468,175.173676 106.463638,175.241104 
	C90.976944,175.438354 75.486595,175.348434 59.238079,175.385437 
	C58.031536,175.385132 57.584583,175.370407 57.137634,175.355667 
M103.267052,75.764450 
	C99.486641,81.231354 95.567139,86.608154 91.955032,92.184090 
	C84.643806,103.470276 78.600075,115.188202 79.890541,129.327850 
	C81.406204,145.934891 95.356918,157.105499 113.485367,156.068771 
	C128.410645,155.215256 140.314102,141.542404 140.392426,126.089920 
	C140.447144,115.296577 136.657501,105.940628 131.256882,97.095154 
	C126.685631,89.608093 121.456779,82.525383 116.630600,75.190269 
	C112.234268,68.508461 108.237015,68.462029 103.267052,75.764450 
z"/>
<path fill="#F12634" opacity="1.000000" stroke="none" 
	d="
M111.765686,51.337852 
	C93.632271,51.722847 75.284393,51.804554 56.470112,51.939980 
	C57.598587,51.331821 59.188278,50.109734 60.789169,50.094875 
	C76.482300,49.949261 92.177406,49.981747 107.871590,50.047688 
	C109.099503,50.052845 110.324745,50.690739 111.765686,51.337852 
z"/>
<path fill="#F12433" opacity="1.000000" stroke="none" 
	d="
M57.277252,175.567459 
	C57.584583,175.370407 58.031536,175.385132 58.792725,175.519104 
	C58.543602,175.685303 57.980236,175.732269 57.277252,175.567459 
z"/>
<path fill="#F12634" opacity="1.000000" stroke="none" 
	d="
M55.865585,52.129753 
	C55.889854,52.229053 55.750175,52.418312 55.412209,52.630188 
	C55.428665,52.549324 55.591232,52.404957 55.865585,52.129753 
z"/>
<path fill="#EE303F" opacity="1.000000" stroke="none" 
	d="
M103.489273,75.478607 
	C108.237015,68.462029 112.234268,68.508461 116.630600,75.190269 
	C121.456779,82.525383 126.685631,89.608093 131.256882,97.095154 
	C136.657501,105.940628 140.447144,115.296577 140.392426,126.089920 
	C140.314102,141.542404 128.410645,155.215256 113.485367,156.068771 
	C95.356918,157.105499 81.406204,145.934891 79.890541,129.327850 
	C78.600075,115.188202 84.643806,103.470276 91.955032,92.184090 
	C95.567139,86.608154 99.486641,81.231354 103.489273,75.478607 
M120.600746,141.201355 
	C125.476578,137.492706 128.663040,132.700928 128.810577,126.506798 
	C128.844955,125.063560 127.016243,122.632553 125.699661,122.366997 
	C124.394287,122.103706 121.782616,123.650307 121.240097,125.003143 
	C116.511681,136.793991 114.561905,137.901505 102.528358,135.439590 
	C101.132011,135.153915 99.028709,136.151825 97.954124,137.244202 
	C97.261185,137.948593 97.327179,140.796112 97.949074,141.162582 
	C101.126091,143.034698 104.612465,145.682785 107.956673,145.635910 
	C111.998459,145.579254 116.006195,143.093277 120.600746,141.201355 
z"/>
<path fill="#FCF7F8" opacity="1.000000" stroke="none" 
	d="
M120.314713,141.430023 
	C116.006195,143.093277 111.998459,145.579254 107.956673,145.635910 
	C104.612465,145.682785 101.126091,143.034698 97.949074,141.162582 
	C97.327179,140.796112 97.261185,137.948593 97.954124,137.244202 
	C99.028709,136.151825 101.132011,135.153915 102.528358,135.439590 
	C114.561905,137.901505 116.511681,136.793991 121.240097,125.003143 
	C121.782616,123.650307 124.394287,122.103706 125.699661,122.366997 
	C127.016243,122.632553 128.844955,125.063560 128.810577,126.506798 
	C128.663040,132.700928 125.476578,137.492706 120.314713,141.430023 
z"/>
</svg>